<svg aria-hidden="true" style="position: absolute; width: 0; height: 0; overflow: hidden;" version="1.1" xmlns="http://www.w3.org/2000/svg" xmlns:xlink="http://www.w3.org/1999/xlink">
<defs>
<symbol id="icon-edit" viewBox="0 0 32 32">
<title>edit</title>
<path d="M19.998 5.34l6.542 6.542-16.554 16.559-6.543-6.542zM31.502 3.763l-2.917-2.919c-0.524-0.523-1.246-0.846-2.044-0.846s-1.521 0.323-2.044 0.846l-2.803 2.803 6.549 6.533 3.26-3.258c0.405-0.404 0.656-0.962 0.656-1.579s-0.251-1.175-0.656-1.579l-0-0zM0.019 31.093c-0.011 0.048-0.018 0.104-0.018 0.161 0 0.411 0.333 0.745 0.745 0.745 0.062 0 0.121-0.007 0.179-0.022l-0.005 0.001 7.29-1.768-6.538-6.54z"></path>
</symbol>
<symbol id="icon-box" viewBox="0 0 31 32">
<title>box</title>
<path d="M0.006 28.776c0.004 1.779 1.445 3.221 3.224 3.224h24.687c1.775-0.009 3.21-1.449 3.212-3.224v-28.776h-31.122v28.776z"></path>
</symbol>
<symbol id="icon-garbage" viewBox="0 0 24 32">
<title>garbage</title>
<path d="M22.002 3.623h-5.7v-1.81c-0.001-1-0.812-1.811-1.812-1.812h-4.831c-1 0.001-1.811 0.812-1.812 1.812v1.811h-5.7c-1.185 0.002-2.145 0.962-2.147 2.147v2.684h24.151v-2.683c-0.002-1.186-0.963-2.146-2.148-2.147h-0zM15.091 3.623h-6.034v-1.81c0-0.332 0.269-0.601 0.601-0.601v0h4.831c0.332 0 0.601 0.269 0.601 0.601v0z"></path>
<path d="M1.208 29.748c0 1.245 1.009 2.254 2.254 2.254v0h17.229c1.245 0 2.254-1.009 2.254-2.254v0-20.088h-21.736v20.088z"></path>
</symbol>
<symbol id="icon-move" viewBox="0 0 32 32">
<title>move</title>
<path d="M31.654 15.197l-4.564-4.572c-0.206-0.205-0.491-0.331-0.805-0.331-0.629 0-1.139 0.508-1.143 1.135v2.286h-6.857v-6.857h2.285c0.002 0 0.004 0 0.006 0 0.628 0 1.136-0.509 1.136-1.136 0-0.317-0.13-0.604-0.34-0.811l-4.571-4.571c-0.204-0.21-0.489-0.34-0.804-0.34s-0.6 0.13-0.803 0.339l-4.571 4.571c-0.205 0.206-0.331 0.491-0.331 0.805 0 0.628 0.506 1.137 1.132 1.143h2.286v6.857h-6.854v-2.287c0-0.002 0-0.004 0-0.006 0-0.628-0.509-1.136-1.136-1.136-0.317 0-0.604 0.13-0.811 0.34l-4.571 4.572c-0.21 0.204-0.34 0.489-0.34 0.804s0.13 0.6 0.339 0.803l4.572 4.571c0.206 0.205 0.491 0.331 0.804 0.331 0.628 0 1.138-0.507 1.143-1.134v-2.286h6.856v6.857h-2.288c-0.002-0-0.005-0-0.008-0-0.628 0-1.136 0.509-1.136 1.136 0 0.317 0.13 0.604 0.34 0.811l4.572 4.571c0.204 0.21 0.489 0.34 0.804 0.34s0.6-0.13 0.803-0.339l4.571-4.571c0.205-0.206 0.331-0.491 0.331-0.805 0-0.628-0.507-1.138-1.134-1.143h-2.286v-6.859h6.857v2.287c0 0.002-0 0.004-0 0.006 0 0.628 0.509 1.136 1.136 1.136 0.317 0 0.604-0.13 0.811-0.34l4.571-4.572c0.21-0.204 0.34-0.489 0.34-0.804s-0.13-0.6-0.339-0.803l-0-0z"></path>
</symbol>
<symbol id="icon-cog" viewBox="0 0 32 32">
<title>cog</title>
<path d="M31.901 14.223c-0.117-0.457-0.525-0.789-1.011-0.789-0.006 0-0.012 0-0.019 0h0.001c-0.013 0-0.028 0-0.044 0-1.951 0-3.533-1.582-3.533-3.533 0-1.036 0.446-1.967 1.156-2.614l0.003-0.003c0.178-0.163 0.289-0.396 0.289-0.655 0-0.209-0.072-0.402-0.193-0.553l0.001 0.002c-0.757-0.956-1.589-1.796-2.505-2.536l-0.030-0.024c-0.151-0.121-0.345-0.195-0.556-0.195-0.261 0-0.496 0.113-0.659 0.292l-0.001 0.001c-0.673 0.705-1.62 1.143-2.669 1.143-0.476 0-0.931-0.090-1.348-0.254l0.025 0.009c-1.284-0.554-2.166-1.808-2.166-3.269 0-0.072 0.002-0.143 0.006-0.213l-0 0.010c0.001-0.016 0.002-0.034 0.002-0.052 0-0.454-0.342-0.829-0.782-0.881l-0.004-0c-0.553-0.068-1.193-0.107-1.843-0.107-0.619 0-1.229 0.035-1.83 0.104l0.073-0.007c-0.448 0.051-0.793 0.427-0.793 0.885 0 0.011 0 0.022 0.001 0.033l-0-0.002c0.001 0.038 0.002 0.082 0.002 0.127 0 1.473-0.895 2.737-2.17 3.278l-0.023 0.009c-0.385 0.148-0.829 0.234-1.294 0.234-1.047 0-1.993-0.435-2.666-1.135l-0.001-0.001c-0.164-0.177-0.397-0.288-0.657-0.288-0.209 0-0.4 0.072-0.552 0.191l0.002-0.001c-0.968 0.762-1.818 1.601-2.566 2.525l-0.023 0.030c-0.122 0.151-0.196 0.345-0.196 0.557 0 0.261 0.112 0.495 0.291 0.658l0.001 0.001c0.718 0.652 1.166 1.589 1.166 2.631 0 0.491-0.1 0.959-0.28 1.385l0.009-0.023c-0.597 1.288-1.879 2.165-3.366 2.165-0.041 0-0.081-0.001-0.121-0.002l0.006 0c-0.018-0.001-0.038-0.002-0.059-0.002-0.451 0-0.822 0.344-0.865 0.784l-0 0.004c-0.068 0.556-0.107 1.199-0.107 1.851 0 0.63 0.036 1.251 0.107 1.861l-0.007-0.074c0.124 0.457 0.535 0.787 1.024 0.787 0.009 0 0.018-0 0.027-0l-0.001 0c0.012-0 0.026-0 0.039-0 1.463 0 2.718 0.896 3.244 2.169l0.009 0.023c0.164 0.395 0.26 0.853 0.26 1.334 0 1.037-0.443 1.97-1.151 2.62l-0.003 0.002c-0.177 0.163-0.288 0.396-0.288 0.655 0 0.209 0.072 0.401 0.193 0.553l-0.001-0.002c0.756 0.957 1.587 1.797 2.502 2.538l0.030 0.023c0.151 0.122 0.346 0.197 0.558 0.197 0.262 0 0.497-0.113 0.66-0.292l0.001-0.001c0.672-0.705 1.618-1.143 2.666-1.143 0.475 0 0.93 0.090 1.347 0.254l-0.025-0.009c1.286 0.553 2.17 1.808 2.17 3.271 0 0.071-0.002 0.142-0.006 0.212l0-0.010c-0.001 0.016-0.002 0.034-0.002 0.052 0 0.455 0.341 0.83 0.782 0.882l0.004 0c0.553 0.068 1.194 0.107 1.843 0.107 0.619 0 1.23-0.035 1.83-0.104l-0.073 0.007c0.448-0.051 0.793-0.427 0.793-0.885 0-0.011-0-0.023-0.001-0.034l0 0.002c-0.001-0.038-0.002-0.083-0.002-0.128 0-1.471 0.894-2.734 2.168-3.275l0.023-0.009c0.385-0.149 0.832-0.236 1.298-0.236 1.047 0 1.992 0.436 2.663 1.135l0.001 0.001c0.164 0.178 0.398 0.289 0.658 0.289 0.208 0 0.399-0.071 0.551-0.19l-0.002 0.001c0.967-0.763 1.817-1.604 2.564-2.529l0.024-0.030c0.122-0.151 0.196-0.345 0.196-0.557 0-0.261-0.112-0.495-0.291-0.658l-0.001-0.001c-0.717-0.652-1.166-1.589-1.166-2.63 0-0.491 0.1-0.958 0.28-1.384l-0.009 0.023c0.56-1.281 1.813-2.162 3.272-2.169h0.199c0.015 0.001 0.033 0.002 0.052 0.002 0.455 0 0.831-0.341 0.885-0.782l0-0.004c0.068-0.553 0.106-1.194 0.106-1.843 0-0.631-0.036-1.253-0.107-1.864l0.007 0.074zM16.028 21.371c-2.948 0-5.337-2.39-5.337-5.337s2.39-5.337 5.337-5.337c2.948 0 5.337 2.39 5.337 5.337v0c-0.003 2.947-2.391 5.334-5.337 5.337h-0z"></path>
</symbol>
<symbol id="icon-fullscreen" viewBox="0 0 32 32">
<title>fullscreen</title>
<path d="M0.144 10.943l-0.138-10.022c-0-0.003-0-0.006-0-0.010 0-0.503 0.408-0.911 0.911-0.911 0.003 0 0.006 0 0.009 0h-0l10.022 0.145c0.496 0.008 0.895 0.411 0.895 0.908 0 0.251-0.102 0.478-0.266 0.642l-2.788 2.788 4.635 4.637-4.305 4.306-4.64-4.637-2.785 2.788c-0.164 0.161-0.389 0.26-0.637 0.26-0.498 0-0.902-0.399-0.912-0.894v-0.001z"></path>
<path d="M27.908 8.849l2.789 2.789c0.164 0.165 0.392 0.266 0.642 0.266 0.497 0 0.901-0.399 0.908-0.894v-0.001l0.145-10.022c0-0.003 0-0.006 0-0.010 0-0.503-0.408-0.911-0.911-0.911-0.003 0-0.007 0-0.011 0h0.001l-10.022 0.145c-0.496 0.007-0.896 0.411-0.896 0.908 0 0.251 0.102 0.478 0.266 0.642v0l2.782 2.775-4.639 4.635 4.306 4.306z"></path>
<path d="M20.811 30.304c-0.165 0.164-0.266 0.392-0.266 0.642 0 0.497 0.399 0.901 0.894 0.908h0.001l10.022 0.145c0.003 0 0.006 0 0.010 0 0.503 0 0.911-0.408 0.911-0.911 0-0.003-0-0.007-0-0.011v0.001l-0.145-10.022c-0.008-0.496-0.411-0.895-0.908-0.895-0.251 0-0.478 0.102-0.642 0.266l-2.789 2.789-4.637-4.637-4.306 4.305 4.637 4.637z"></path>
<path d="M0.926 31.934l10.022-0.145c0.496-0.008 0.895-0.411 0.895-0.908 0-0.251-0.102-0.478-0.266-0.642v0l-2.789-2.782 4.637-4.637-4.306-4.306-4.637 4.637-2.789-2.789c-0.164-0.164-0.391-0.266-0.642-0.266-0.497 0-0.901 0.4-0.908 0.895v0.001l-0.143 10.022c0 0 0 0 0 0 0 0.508 0.412 0.921 0.921 0.921 0.002 0 0.004 0 0.007-0h-0z"></path>
</symbol>
<symbol id="icon-close" viewBox="0 0 32 32">
<title>close</title>
<path d="M19.803 16l11.41-11.41c0.418-0.472 0.673-1.097 0.673-1.782 0-1.488-1.206-2.695-2.695-2.695-0.685 0-1.31 0.255-1.785 0.676l0.003-0.002-11.41 11.41-11.41-11.41c-0.472-0.418-1.097-0.673-1.782-0.673-1.488 0-2.695 1.206-2.695 2.695 0 0.685 0.255 1.31 0.676 1.785l-0.002-0.003 11.41 11.408-11.41 11.41c-0.561 0.496-0.912 1.218-0.912 2.021 0 1.488 1.206 2.695 2.695 2.695 0.804 0 1.525-0.352 2.019-0.91l0.002-0.003 11.41-11.41 11.41 11.41c0.496 0.561 1.218 0.913 2.021 0.913 1.488 0 2.695-1.206 2.695-2.695 0-0.804-0.352-1.525-0.91-2.019l-0.003-0.002z"></path>
</symbol>
<symbol id="icon-facebook" viewBox="0 0 32 32">
<title>facebook</title>
<path d="M11.761 6.197c0 0.806 0 4.406 0 4.406h-3.228v5.387h3.228v16.009h6.631v-16.009h4.449c0 0 0.417-2.583 0.619-5.408-0.579 0-5.043 0-5.043 0s0-3.134 0-3.684c0-0.551 0.723-1.291 1.437-1.291 0.713 0 2.218 0 3.613 0 0-0.734 0-3.268 0-5.609-1.861 0-3.979 0-4.912 0-6.958-0-6.794 5.392-6.794 6.197z"></path>
</symbol>
<symbol id="icon-google" viewBox="0 0 32 32">
<title>google</title>
<path fill="#ea4335" style="fill: var(--color3, #ea4335)" d="M16 6.333c2.36 0 4.473 0.813 6.14 2.4l4.567-4.567c-2.773-2.58-6.393-4.167-10.707-4.167-6.253 0-11.66 3.587-14.293 8.813l5.32 4.127c1.26-3.793 4.8-6.607 8.973-6.607z"></path>
<path fill="#4285f4" style="fill: var(--color4, #4285f4)" d="M31.32 16.367c0-1.047-0.1-2.060-0.253-3.033h-15.067v6.013h8.627c-0.387 1.973-1.507 3.653-3.187 4.787l5.153 4c3.007-2.787 4.727-6.907 4.727-11.767z"></path>
<path fill="#fbbc05" style="fill: var(--color5, #fbbc05)" d="M7.020 19.060c-0.32-0.967-0.507-1.993-0.507-3.060s0.18-2.093 0.507-3.060l-5.32-4.127c-1.087 2.16-1.7 4.6-1.7 7.187s0.613 5.027 1.707 7.187l5.313-4.127z"></path>
<path fill="#34a853" style="fill: var(--color6, #34a853)" d="M16 32c4.32 0 7.953-1.42 10.593-3.873l-5.153-4c-1.433 0.967-3.28 1.533-5.44 1.533-4.173 0-7.713-2.813-8.98-6.607l-5.32 4.127c2.64 5.233 8.047 8.82 14.3 8.82z"></path>
</symbol>
<symbol id="icon-list-sort" viewBox="0 0 40 32">
<title>list-sort</title>
<path d="M0 0h8.906v8.906h-8.906z"></path>
<path d="M11.736 0h28.496v8.906h-28.496z"></path>
<path d="M0 11.55h8.906v8.906h-8.906z"></path>
<path d="M11.736 11.55h28.496v8.906h-28.496z"></path>
<path d="M0 23.1h8.906v8.906h-8.906z"></path>
<path d="M11.736 23.1h28.496v8.906h-28.496z"></path>
</symbol>
<symbol id="icon-menu-sort" viewBox="0 0 32 32">
<title>menu-sort</title>
<path d="M11.999 11.999h8v8h-8v-8z"></path>
<path d="M0 0h8v8h-8v-8z"></path>
<path d="M11.999 24h8v8h-8v-8z"></path>
<path d="M0 11.999h8v8h-8v-8z"></path>
<path d="M0 24h8v8h-8v-8z"></path>
<path d="M24 0h8v8h-8v-8z"></path>
<path d="M11.999 0h8v8h-8v-8z"></path>
<path d="M24 11.999h8v8h-8v-8z"></path>
<path d="M24 24h8v8h-8v-8z"></path>
</symbol>
<symbol id="icon-search" viewBox="0 0 31 32">
<title>search</title>
<path d="M30.426 29.146l-7.617-7.924c1.879-2.228 3.020-5.131 3.020-8.3 0-7.133-5.782-12.915-12.915-12.915s-12.915 5.782-12.915 12.915c0 7.133 5.782 12.915 12.915 12.915 0.002 0 0.005 0 0.007 0h-0c0.010 0 0.022 0 0.033 0 2.762 0 5.319-0.876 7.409-2.365l-0.039 0.026 7.673 7.982c0.307 0.319 0.738 0.517 1.215 0.517 0.931 0 1.685-0.754 1.685-1.685 0-0.454-0.179-0.866-0.471-1.169l0 0.001zM12.921 3.371c5.274 0 9.55 4.276 9.55 9.55s-4.276 9.55-9.55 9.55c-5.272 0-9.547-4.272-9.55-9.544v-0c0.002-5.275 4.276-9.551 9.55-9.556h0.001z"></path>
</symbol>
<symbol id="icon-menu" viewBox="0 0 32 32">
<title>menu</title>
<path d="M30.707 14.707h-29.415c-0.714 0-1.293 0.579-1.293 1.293s0.579 1.293 1.293 1.293h29.415c0.714 0 1.293-0.579 1.293-1.293s-0.579-1.293-1.293-1.293z"></path>
<path d="M30.707 4.902h-29.415c-0.714 0-1.293 0.579-1.293 1.293s0.579 1.293 1.293 1.293h29.415c0.714 0 1.293-0.579 1.293-1.293s-0.579-1.293-1.293-1.293z"></path>
<path d="M30.707 24.512h-29.415c-0.714 0-1.293 0.579-1.293 1.293s0.579 1.293 1.293 1.293h29.415c0.714 0 1.293-0.579 1.293-1.293s-0.579-1.293-1.293-1.293z"></path>
</symbol>
<symbol id="icon-dashboard-blue" viewBox="0 0 41 32">
<title>dashboard-blue</title>
<path d="M39.113 12.454c-2.074-4.926-5.915-8.766-10.709-10.791l-0.131-0.049c-2.333-1.020-5.052-1.614-7.91-1.614s-5.577 0.594-8.040 1.665l0.13-0.050c-4.925 2.075-8.765 5.915-10.79 10.709l-0.049 0.131c-1.020 2.341-1.613 5.068-1.613 7.934 0 4.067 1.195 7.856 3.254 11.033l-0.048-0.079c0.247 0.398 0.682 0.66 1.178 0.66 0.017 0 0.034-0 0.051-0.001l-0.002 0h31.86c0.015 0.001 0.032 0.001 0.049 0.001 0.496 0 0.931-0.261 1.175-0.654l0.003-0.006c2.010-3.097 3.204-6.885 3.204-10.952 0-2.866-0.593-5.593-1.664-8.066l0.051 0.132zM18.302 3.762c0.526-0.524 1.252-0.848 2.053-0.848 1.605 0 2.907 1.3 2.91 2.905v0c-0.001 1.605-1.303 2.906-2.909 2.906-0.802 0-1.528-0.325-2.055-0.85l0 0c-0.527-0.526-0.852-1.253-0.852-2.057s0.326-1.53 0.852-2.057v0zM7.875 22.42c-0.51 0.527-1.224 0.853-2.014 0.853-0.015 0-0.030-0-0.044-0l0.002 0c-0.013 0-0.027 0-0.042 0-0.79 0-1.504-0.327-2.014-0.853l-0.001-0.001c-0.526-0.526-0.852-1.253-0.852-2.057s0.326-1.53 0.852-2.057v0c0.51-0.526 1.223-0.852 2.013-0.852 0.015 0 0.031 0 0.046 0l-0.002-0c0.013-0 0.029-0 0.044-0 0.789 0 1.503 0.326 2.012 0.852l0.001 0.001c0.527 0.526 0.852 1.253 0.852 2.057s-0.326 1.53-0.852 2.057v0zM12.238 12.238c-0.526 0.527-1.254 0.853-2.057 0.853s-1.531-0.326-2.057-0.853l-0-0c-0.525-0.526-0.85-1.252-0.85-2.055 0-1.606 1.301-2.907 2.906-2.909h0c1.605 0.001 2.906 1.303 2.906 2.909 0 0.802-0.325 1.528-0.85 2.055l0-0zM25.113 12.432l-2.295 8.686c0.74 0.502 1.308 1.208 1.627 2.038l0.010 0.030c0.178 0.458 0.281 0.988 0.281 1.542 0 1.602-0.862 3.003-2.148 3.765l-0.020 0.011c-0.625 0.382-1.381 0.608-2.189 0.608-0.402 0-0.79-0.056-1.159-0.16l0.030 0.007c-1.15-0.286-2.092-1.020-2.648-2.002l-0.011-0.021c-0.377-0.631-0.6-1.392-0.6-2.204 0-1.345 0.611-2.548 1.57-3.347l0.007-0.006c0.66-0.553 1.498-0.914 2.417-0.988l0.015-0.001 2.295-8.686c0.099-0.387 0.346-0.704 0.674-0.894l0.007-0.004c0.202-0.127 0.448-0.202 0.712-0.202 0.135 0 0.266 0.020 0.389 0.057l-0.010-0.002c0.631 0.182 1.084 0.754 1.084 1.432 0 0.12-0.014 0.237-0.041 0.349l0.002-0.010zM28.488 12.238c-0.526-0.526-0.851-1.253-0.851-2.056 0-1.606 1.302-2.908 2.908-2.908s2.908 1.302 2.908 2.908c0 1.606-1.302 2.907-2.907 2.908v0c-0.013 0-0.028 0-0.043 0-0.789 0-1.503-0.326-2.012-0.852l-0.001-0.001zM36.966 22.42c-0.526 0.526-1.253 0.852-2.057 0.852-1.606 0-2.909-1.302-2.909-2.909s1.302-2.909 2.909-2.909c1.606 0 2.909 1.302 2.909 2.909 0 0 0 0 0 0v0c0 0.013 0 0.027 0 0.042 0 0.79-0.327 1.504-0.853 2.014l-0.001 0.001z"></path>
</symbol>
<symbol id="icon-caret-bottom" viewBox="0 0 32 32">
<title>caret-bottom</title>
<path d="M0 8.889h30.582l-15.701 14.404z"></path>
</symbol>
<symbol id="icon-box-blue" viewBox="0 0 32 32">
<title>box-blue</title>
<path d="M16 0l-5.625 3.563 5.625 3.753 5.625-3.75z"></path>
<path d="M9.438 12.693l5.625 3.75v-7.499l-5.625-3.75z"></path>
<path d="M16.938 16.443l5.625-3.75v-7.499l-5.625 3.75z"></path>
<path d="M6.569 16.819c-0.605 0.134-1.138 0.368-1.61 0.686l0.017-0.011 4.818 4.819c-0.75 0.75-0.582 0.562-1.331 1.312l-4.65-4.65v-7.725c-0.035-2.079-1.728-3.75-3.811-3.75-0 0-0 0-0.001 0h0v13.574l7.563 7.5v3.424h7.5v-9.724l-4.181-4.182c-0.847-0.854-2.021-1.382-3.318-1.382-0.353 0-0.696 0.039-1.027 0.113l0.031-0.006z"></path>
<path d="M28.187 11.25v7.725l-4.65 4.65c-0.75-0.75-0.581-0.563-1.332-1.312l4.819-4.819c-0.728-0.49-1.624-0.782-2.588-0.782-1.297 0-2.471 0.529-3.318 1.382l-4.182 4.182v9.724h7.5v-3.425l7.562-7.5v-13.574c-2.083 0-3.776 1.672-3.811 3.747l-0 0.003z"></path>
</symbol>
<symbol id="icon-cogs-blue" viewBox="0 0 32 32">
<title>cogs-blue</title>
<path d="M2.075 11.894c0.184 0.624 0.419 1.166 0.709 1.672l-0.020-0.038-0.831 1.048c-0.116 0.145-0.186 0.331-0.186 0.534 0 0.236 0.095 0.451 0.25 0.606l1.431 1.431c0.155 0.155 0.369 0.251 0.606 0.251 0.203 0 0.389-0.070 0.536-0.188l-0.002 0.001 1.041-0.824c0.488 0.287 1.051 0.532 1.645 0.706l0.053 0.013 0.156 1.339c0.051 0.428 0.41 0.757 0.847 0.76h2.025c0.437-0.003 0.796-0.332 0.847-0.755l0-0.004 0.15-1.292c0.692-0.183 1.298-0.435 1.859-0.756l-0.037 0.020 1.007 0.797c0.145 0.116 0.331 0.186 0.534 0.186 0.236 0 0.451-0.095 0.606-0.25l1.431-1.431c0.155-0.155 0.251-0.369 0.251-0.606 0-0.203-0.070-0.389-0.188-0.536l0.001 0.002-0.783-0.994c0.306-0.514 0.563-1.108 0.74-1.736l0.013-0.053 1.208-0.139c0.428-0.051 0.757-0.41 0.76-0.847v-2.030c-0.003-0.437-0.332-0.796-0.755-0.847l-0.004-0-1.191-0.139c-0.181-0.673-0.426-1.262-0.738-1.807l0.019 0.037 0.732-0.926c0.116-0.145 0.186-0.331 0.186-0.534 0-0.236-0.095-0.451-0.25-0.606l0 0-1.423-1.432c-0.155-0.155-0.369-0.251-0.606-0.251-0.203 0-0.389 0.070-0.536 0.188l0.002-0.001-0.899 0.712c-0.536-0.32-1.154-0.587-1.809-0.768l-0.053-0.013-0.136-1.163c-0.051-0.428-0.41-0.757-0.847-0.76h-2.029c-0.437 0.003-0.796 0.332-0.847 0.755l-0 0.004-0.139 1.162c-0.725 0.197-1.36 0.473-1.943 0.826l0.034-0.019-0.933-0.74c-0.145-0.116-0.331-0.186-0.534-0.186-0.236 0-0.451 0.095-0.606 0.25l-1.431 1.431c-0.155 0.155-0.251 0.369-0.251 0.606 0 0.203 0.070 0.389 0.188 0.536l-0.001-0.002 0.78 0.986c-0.292 0.514-0.533 1.11-0.695 1.737l-0.011 0.051-1.248 0.142c-0.428 0.051-0.757 0.41-0.76 0.847v2.025c0.003 0.437 0.332 0.796 0.755 0.847l0.004 0zM9.411 6.416c1.849 0 3.348 1.499 3.348 3.348s-1.499 3.348-3.348 3.348c-1.849 0-3.348-1.499-3.348-3.348v0c0.003-1.848 1.5-3.345 3.348-3.348h0z"></path>
<path d="M29.428 12.392l-1.068-0.903c-0.147-0.125-0.338-0.201-0.548-0.201-0.225 0-0.43 0.088-0.582 0.232l0-0-0.59 0.552c-0.455-0.225-0.982-0.402-1.536-0.503l-0.037-0.006-0.167-0.814c-0.082-0.392-0.425-0.681-0.835-0.681-0.024 0-0.047 0.001-0.070 0.003l0.003-0-1.394 0.119c-0.427 0.037-0.762 0.385-0.776 0.816l-0 0.001-0.027 0.827c-0.575 0.209-1.072 0.476-1.524 0.803l0.018-0.012-0.705-0.471c-0.132-0.089-0.294-0.142-0.469-0.142-0.259 0-0.491 0.116-0.646 0.299l-0.001 0.001-0.903 1.075c-0.125 0.147-0.201 0.338-0.201 0.548 0 0.225 0.088 0.43 0.232 0.582l0.617 0.658c-0.199 0.434-0.357 0.94-0.449 1.468l-0.006 0.038-0.882 0.18c-0.392 0.082-0.681 0.425-0.681 0.835 0 0.024 0.001 0.047 0.003 0.070l-0-0.003 0.119 1.394c0.037 0.427 0.385 0.762 0.816 0.776l0.001 0 0.953 0.030c0.191 0.493 0.418 0.917 0.688 1.309l-0.014-0.021-0.533 0.804c-0.089 0.132-0.142 0.294-0.142 0.469 0 0.259 0.116 0.491 0.299 0.646l0.001 0.001 1.068 0.903c0.147 0.125 0.338 0.201 0.548 0.201 0.225 0 0.43-0.088 0.582-0.232l-0 0 0.698-0.659c0.413 0.2 0.893 0.363 1.395 0.464l0.039 0.007 0.193 0.956c0.082 0.392 0.425 0.681 0.835 0.681 0.024 0 0.047-0.001 0.070-0.003l-0.003 0 1.394-0.119c0.427-0.037 0.762-0.385 0.776-0.816l0-0.001 0.030-0.936c0.547-0.196 1.021-0.441 1.456-0.739l-0.021 0.014 0.77 0.509c0.132 0.089 0.294 0.142 0.469 0.142 0.259 0 0.491-0.116 0.646-0.299l0.001-0.001 0.903-1.068c0.125-0.147 0.201-0.338 0.201-0.548 0-0.225-0.088-0.43-0.232-0.582l0 0-0.62-0.659c0.213-0.436 0.382-0.943 0.482-1.474l0.006-0.038 0.847-0.173c0.392-0.082 0.681-0.425 0.681-0.835 0-0.024-0.001-0.047-0.003-0.070l0 0.003-0.119-1.394c-0.037-0.427-0.385-0.762-0.816-0.776l-0.001-0-0.847-0.027c-0.192-0.534-0.431-0.995-0.722-1.419l0.014 0.021 0.465-0.698c0.090-0.132 0.143-0.296 0.143-0.471 0-0.256-0.114-0.486-0.294-0.641l-0.001-0.001zM24.174 20.451c-0.069 0.006-0.149 0.010-0.23 0.010-1.513 0-2.74-1.227-2.74-2.74s1.227-2.74 2.74-2.74c1.432 0 2.607 1.098 2.729 2.499l0.001 0.010c0.006 0.069 0.010 0.149 0.010 0.23 0 1.432-1.098 2.607-2.498 2.729l-0.010 0.001z"></path>
<path d="M6.952 24.2c-0.426 0.046-0.755 0.401-0.76 0.833v0l-0.010 0.858c-0 0.002-0 0.004-0 0.007 0 0.43 0.32 0.785 0.736 0.84l0.004 0 0.631 0.081c0.116 0.417 0.269 0.781 0.461 1.12l-0.013-0.024-0.407 0.502c-0.119 0.145-0.191 0.332-0.191 0.536 0 0.231 0.092 0.44 0.242 0.593l0.6 0.613c0.154 0.159 0.37 0.257 0.608 0.257 0.197 0 0.379-0.068 0.523-0.181l-0.002 0.001 0.505-0.39c0.325 0.196 0.699 0.363 1.094 0.482l0.035 0.009 0.068 0.651c0.046 0.426 0.401 0.755 0.833 0.76h0l0.858 0.010c0.002 0 0.004 0 0.007 0 0.43 0 0.785-0.32 0.84-0.735l0-0.004 0.078-0.617c0.464-0.114 0.872-0.276 1.25-0.484l-0.026 0.013 0.471 0.383c0.145 0.119 0.332 0.191 0.536 0.191 0.231 0 0.44-0.092 0.593-0.242l0.613-0.6c0.159-0.154 0.257-0.37 0.257-0.608 0-0.197-0.068-0.379-0.181-0.523l0.001 0.002-0.363-0.471c0.209-0.341 0.385-0.735 0.507-1.152l0.009-0.035 0.565-0.057c0.426-0.046 0.755-0.401 0.76-0.833v-0l0.010-0.858c0-0.002 0-0.004 0-0.007 0-0.43-0.32-0.785-0.736-0.84l-0.004-0-0.55-0.072c-0.116-0.451-0.275-0.846-0.478-1.213l0.013 0.026 0.343-0.421c0.119-0.145 0.191-0.332 0.191-0.536 0-0.231-0.092-0.44-0.242-0.593l-0.6-0.613c-0.154-0.159-0.37-0.257-0.608-0.257-0.197 0-0.379 0.068-0.523 0.181l0.002-0.001-0.41 0.315c-0.355-0.219-0.765-0.402-1.2-0.527l-0.035-0.009-0.055-0.533c-0.046-0.426-0.401-0.755-0.833-0.76h-0l-0.858-0.010c-0.002-0-0.004-0-0.007-0-0.43 0-0.785 0.32-0.84 0.736l-0 0.004-0.068 0.529c-0.485 0.127-0.91 0.306-1.302 0.535l0.024-0.013-0.424-0.346c-0.145-0.119-0.332-0.191-0.536-0.191-0.231 0-0.44 0.092-0.593 0.242l0-0-0.617 0.603c-0.159 0.154-0.257 0.37-0.257 0.608 0 0.197 0.068 0.379 0.181 0.523l-0.001-0.002 0.363 0.471c-0.198 0.341-0.364 0.736-0.477 1.152l-0.008 0.035zM12.491 23.231c1.221 0.015 2.204 1.009 2.204 2.231 0 1.232-0.999 2.232-2.232 2.232s-2.232-0.999-2.232-2.232c0-0.010 0-0.019 0-0.029v0.001c0.016-1.221 1.010-2.204 2.233-2.204 0.009 0 0.018 0 0.027 0h-0.001z"></path>
</symbol>
<symbol id="icon-comment-blue" viewBox="0 0 32 32">
<title>comment-blue</title>
<path d="M30.085 7.893c-1.554-1.834-3.525-3.266-5.77-4.157l-0.099-0.035c-2.33-0.974-5.037-1.54-7.877-1.54-0.077 0-0.155 0-0.232 0.001l0.012-0c-0.027-0-0.059-0-0.091-0-2.201 0-4.324 0.332-6.322 0.949l0.152-0.040c-1.961 0.577-3.671 1.416-5.201 2.493l0.055-0.037c-1.389 0.985-2.537 2.21-3.406 3.626l-0.030 0.053c-0.796 1.272-1.27 2.816-1.275 4.47v0.001c0.005 1.898 0.615 3.653 1.646 5.083l-0.018-0.026c1.17 1.636 2.659 2.968 4.385 3.924l0.068 0.034c-0.15 0.547-0.31 1.002-0.496 1.442l0.028-0.075q-0.27 0.648-0.486 1.062c-0.19 0.352-0.384 0.652-0.598 0.936l0.013-0.019q-0.368 0.503-0.558 0.711l-0.621 0.684q-0.432 0.477-0.558 0.621c-0.052 0.049-0.099 0.102-0.142 0.159l-0.002 0.003-0.126 0.153-0.106 0.163q-0.087 0.135-0.081 0.173c-0 0.065-0.014 0.127-0.038 0.183l0.001-0.003c-0.014 0.029-0.022 0.064-0.022 0.1 0 0.043 0.011 0.083 0.031 0.118l-0.001-0.001v0.018c0.044 0.211 0.157 0.39 0.313 0.518l0.002 0.001c0.122 0.104 0.282 0.168 0.457 0.168 0.033 0 0.065-0.002 0.096-0.007l-0.004 0c0.777-0.092 1.473-0.234 2.147-0.426l-0.095 0.023c3.211-0.817 5.995-2.329 8.297-4.372l-0.020 0.018c0.78 0.090 1.687 0.142 2.605 0.144h0.003c0.068 0.001 0.148 0.001 0.228 0.001 2.836 0 5.54-0.565 8.006-1.587l-0.139 0.051c2.342-0.926 4.313-2.358 5.848-4.171l0.018-0.021c1.341-1.54 2.159-3.567 2.159-5.784s-0.818-4.244-2.168-5.795l0.009 0.011z"></path>
</symbol>
<symbol id="icon-gallery-blue" viewBox="0 0 32 32">
<title>gallery-blue</title>
<path d="M2.915 26.832v-21.013h-2.35c-0.312 0.001-0.565 0.253-0.565 0.565v23.206c0 0 0 0.001 0 0.001 0 0.312 0.253 0.566 0.565 0.567h26.822c0.313-0.001 0.566-0.255 0.566-0.568 0 0 0 0 0 0v0-2.194h-24.47c-0.001 0-0.001 0-0.002 0-0.312 0-0.565-0.252-0.566-0.564v-0z"></path>
<path d="M31.531 1.83h-26.819c-0.312 0-0.565 0.253-0.565 0.565v23.206c0 0 0 0.001 0 0.001 0 0.313 0.253 0.567 0.565 0.569h26.82c0.313-0.002 0.566-0.256 0.566-0.569 0-0 0-0.001 0-0.001v0-23.208c-0.003-0.311-0.255-0.563-0.567-0.563h-0zM11.66 3.939c1.66 0.001 3.006 1.347 3.006 3.007s-1.346 3.007-3.007 3.007c-1.659 0-3.004-1.344-3.007-3.002v-0c0-0.001 0-0.002 0-0.003 0-1.661 1.347-3.008 3.008-3.009h0zM30.258 19.16h-23.962v-0.232l4.728-5.402 2.661 1.795 3.1-5.313 3.602 2.554 3.256-6.748 6.615 13.095z"></path>
</symbol>
<symbol id="icon-magazine-blue" viewBox="0 0 32 32">
<title>magazine-blue</title>
<path d="M27.43 4.169h-1.124c0.051 0.309 0.082 0.668 0.086 1.033l0 0.005v22.582c-0 1.606-0.61 3.070-1.61 4.174l0.005-0.005h2.643c0.573 0 1.038-0.465 1.038-1.038v0-25.709c0-0.001 0-0.003 0-0.004 0-0.573-0.465-1.038-1.038-1.038 0 0 0 0 0 0v0z"></path>
<path d="M19.090 0c-0.573 0-1.038 0.465-1.038 1.038v0 3.131h-13.551c-0.573 0-1.038 0.465-1.038 1.038v12.294c1.137-0.087 2.595-0.133 3.126-0.133 3.721 0.013 6.933 2.182 8.453 5.322l0.025 0.056c0.847-0.57 1.855-0.969 2.942-1.127l0.039-0.005v2.109c-1.066 0.22-1.986 0.743-2.692 1.473l-0.001 0.001c-0.19 0.195-0.454 0.315-0.747 0.315-0.474 0-0.875-0.317-1.001-0.751l-0.002-0.007c-0.904-3.082-3.702-5.295-7.018-5.303h-0.001c-0.463 0-2.088 0.043-3.127 0.129v11.33c0 0.573 0.465 1.038 1.038 1.038v0h15.635c2.301-0.002 4.166-1.867 4.169-4.168v-22.57c-0.003-2.876-2.334-5.207-5.211-5.21h-0zM8.669 8.336h4.172c0.576 0 1.042 0.467 1.042 1.042s-0.467 1.042-1.042 1.042h-4.169c-0.576 0-1.042-0.467-1.042-1.042s0.467-1.042 1.042-1.042v0zM18.048 14.589h-9.379c-0.576 0-1.042-0.467-1.042-1.042s0.467-1.042 1.042-1.042h9.379zM22.217 24.179c-0.596-0.352-1.314-0.56-2.080-0.56-0.002 0-0.003 0-0.005 0h0v-21.357c1.224 0.443 2.083 1.595 2.084 2.947v0z"></path>
</symbol>
<symbol id="icon-user-blue" viewBox="0 0 32 32">
<title>user-blue</title>
<path d="M16.231 15.73c3.576 0 6.475-3.521 6.475-7.865s-0.951-7.865-6.475-7.865-6.475 3.521-6.475 7.865 2.899 7.865 6.475 7.865z"></path>
<path d="M4.005 27.739c0-0.265 0-0.075 0 0z"></path>
<path d="M28.462 27.946c0-0.073 0-0.5 0 0z"></path>
<path d="M28.448 27.421c-0.12-7.567-1.108-9.723-8.67-11.088-0.824 0.843-1.973 1.366-3.243 1.366-0.107 0-0.212-0.004-0.317-0.011l0.014 0.001c-0.090 0.006-0.196 0.010-0.302 0.010-1.271 0-2.42-0.523-3.243-1.365l-0.001-0.001c-7.48 1.35-8.528 3.474-8.666 10.842-0.011 0.6-0.017 0.633-0.019 0.563 0 0.131 0 0.373 0 0.795 0 0 1.8 3.629 12.229 3.629s12.229-3.629 12.229-3.629c0-0.271 0-0.46 0-0.588-0.009-0.109-0.014-0.236-0.014-0.364 0-0.056 0.001-0.112 0.003-0.168l-0 0.008z"></path>
</symbol>
<symbol id="icon-view" viewBox="0 0 32 32">
<title>view</title>
<path d="M28.027 11.050c-3.031-3.024-7.214-4.893-11.834-4.893s-8.803 1.87-11.834 4.894l-4.359 4.349 4.468 4.468c3.031 3.024 7.215 4.895 11.835 4.895s8.804-1.87 11.835-4.895l4.354-4.352zM27.36 19.099c-2.832 2.826-6.741 4.573-11.058 4.573s-8.226-1.747-11.059-4.573l-3.692-3.692 3.582-3.582c2.832-2.826 6.741-4.573 11.058-4.573s8.226 1.747 11.059 4.573l3.692 3.692z"></path>
<path d="M15.682 11.055c-2.121 0.003-3.84 1.721-3.842 3.842v0c0 0.303 0.246 0.549 0.549 0.549s0.549-0.246 0.549-0.549v0c0.001-1.515 1.229-2.743 2.744-2.745h0c0.303 0 0.549-0.246 0.549-0.549s-0.246-0.549-0.549-0.549v0z"></path>
<path d="M16.231 8.31c-3.942 0-7.138 3.196-7.138 7.138s3.196 7.138 7.138 7.138c3.942 0 7.138-3.196 7.138-7.138v0c0-3.942-3.196-7.138-7.138-7.138v0zM16.231 21.484c-3.335 0-6.038-2.703-6.038-6.038s2.703-6.038 6.038-6.038c3.335 0 6.038 2.703 6.038 6.038v0c-0.004 3.333-2.705 6.034-6.038 6.038h-0z"></path>
</symbol>
<symbol id="icon-list" viewBox="0 0 32 32">
<title>list</title>
<path d="M0 10.331h7.081v-7.081h-7.081zM1.875 5.125h3.331v3.331h-3.331z"></path>
<path d="M9.331 3.25v7.081h22.669v-7.081zM30.125 8.456h-18.918v-3.331h18.918z"></path>
<path d="M0 19.519h7.081v-7.081h-7.081zM1.875 14.313h3.331v3.331h-3.331z"></path>
<path d="M9.331 19.519h22.669v-7.081h-22.669zM11.206 14.313h18.918v3.331h-18.918z"></path>
<path d="M0 28.707h7.081v-7.081h-7.081zM1.875 23.501h3.331v3.331h-3.331z"></path>
<path d="M9.331 28.707h22.669v-7.081h-22.669zM11.206 23.501h18.918v3.331h-18.918z"></path>
</symbol>
<symbol id="icon-dots" viewBox="0 0 8 32">
<title>dots</title>
<path d="M8 4c0 2.209-1.791 4-4 4s-4-1.791-4-4c0-2.209 1.791-4 4-4s4 1.791 4 4z"></path>
<path d="M8 16c0 2.209-1.791 4-4 4s-4-1.791-4-4c0-2.209 1.791-4 4-4s4 1.791 4 4z"></path>
<path d="M8 28c0 2.209-1.791 4-4 4s-4-1.791-4-4c0-2.209 1.791-4 4-4s4 1.791 4 4z"></path>
</symbol>
<symbol id="icon-exclamation" viewBox="0 0 7 32">
<title>exclamation</title>
<path d="M5.78 24.002h-4.229c-0.315 0.012-0.588 0.184-0.741 0.436l-0.002 0.004c-0.197 0.273-0.315 0.614-0.315 0.983 0 0.014 0 0.028 0.001 0.042l-0-0.002v5.091c-0 0.011-0 0.025-0 0.038 0 0.369 0.118 0.711 0.319 0.99l-0.003-0.005c0.156 0.256 0.428 0.427 0.742 0.44l0.002 0h4.229c0.315-0.013 0.588-0.184 0.741-0.436l0.002-0.004c0.196-0.273 0.313-0.614 0.313-0.982 0-0.015-0-0.029-0.001-0.044l0 0.002v-5.102c0-0.012 0-0.025 0-0.039 0-0.369-0.118-0.711-0.319-0.989l0.003 0.005c-0.157-0.251-0.429-0.419-0.74-0.429l-0.002-0z"></path>
<path d="M7.034 0.44c-0.15-0.257-0.421-0.43-0.733-0.44l-0.001-0h-5.281c-0.313 0.010-0.585 0.183-0.733 0.436l-0.002 0.004c-0.182 0.261-0.291 0.584-0.291 0.933 0 0.032 0.001 0.063 0.003 0.094l-0-0.004 0.462 17.454c0.002 0.385 0.129 0.74 0.342 1.028l-0.003-0.005c0.16 0.256 0.435 0.427 0.751 0.44l0.002 0h4.229c0.318-0.013 0.593-0.184 0.75-0.436l0.002-0.004c0.209-0.283 0.335-0.638 0.339-1.022v-0.001l0.462-17.454c0.001-0.024 0.002-0.051 0.002-0.079 0-0.354-0.112-0.681-0.302-0.949l0.003 0.005z"></path>
</symbol>
<symbol id="icon-info" viewBox="0 0 14 32">
<title>info</title>
<path d="M13.715 28.547l-0.448 1.827q-2.013 0.794-3.21 1.209c-0.785 0.265-1.689 0.419-2.629 0.419-0.054 0-0.108-0.001-0.162-0.002l0.008 0c-0.105 0.007-0.228 0.011-0.351 0.011-1.302 0-2.5-0.448-3.448-1.198l0.012 0.009c-0.829-0.709-1.352-1.757-1.352-2.927 0-0.032 0-0.063 0.001-0.095l-0 0.005c0.001-0.513 0.038-1.016 0.108-1.509l-0.007 0.057q0.104-0.742 0.328-1.676l1.676-5.932q0.224-0.853 0.377-1.614c0.093-0.416 0.148-0.895 0.153-1.387l0-0.004c0.008-0.068 0.012-0.147 0.012-0.227 0-0.517-0.182-0.992-0.486-1.363l0.003 0.004c-0.419-0.291-0.938-0.464-1.498-0.464-0.104 0-0.207 0.006-0.308 0.018l0.012-0.001c-0.476 0.004-0.934 0.077-1.365 0.212l0.033-0.009c-0.455 0.134-0.846 0.264-1.178 0.387l0.448-1.829q1.65-0.672 3.151-1.148c0.849-0.289 1.827-0.461 2.844-0.471l0.005-0c0.103-0.007 0.222-0.011 0.343-0.011 1.287 0 2.469 0.448 3.399 1.197l-0.010-0.008c0.807 0.714 1.313 1.752 1.313 2.909 0 0.045-0.001 0.091-0.002 0.136l0-0.007c0 0.257-0.028 0.707-0.090 1.362-0.057 0.661-0.176 1.27-0.351 1.853l0.017-0.064-1.669 5.909c-0.128 0.426-0.256 0.975-0.354 1.534l-0.014 0.094c-0.087 0.407-0.145 0.881-0.162 1.367l-0 0.014c-0.009 0.073-0.015 0.157-0.015 0.242 0 0.528 0.206 1.008 0.541 1.364l-0.001-0.001c0.442 0.276 0.979 0.439 1.554 0.439 0.096 0 0.191-0.005 0.285-0.014l-0.012 0.001c0.496-0.011 0.97-0.088 1.418-0.224l-0.037 0.010c0.438-0.122 0.81-0.259 1.168-0.423l-0.048 0.020zM14.139 3.738c0 0.010 0 0.021 0 0.032 0 1.035-0.454 1.963-1.175 2.597l-0.004 0.003c-0.711 0.675-1.674 1.090-2.735 1.090-0.027 0-0.054-0-0.081-0.001l0.004 0c-0.023 0-0.050 0.001-0.077 0.001-1.066 0-2.034-0.415-2.753-1.092l0.002 0.002c-0.724-0.636-1.179-1.563-1.179-2.597 0-0.013 0-0.025 0-0.038l-0 0.002c-0-0.008-0-0.017-0-0.027 0-1.039 0.454-1.971 1.175-2.61l0.004-0.003c0.74-0.68 1.731-1.096 2.819-1.096s2.079 0.417 2.822 1.099l-0.003-0.003c0.726 0.643 1.181 1.577 1.181 2.617 0 0.008-0 0.016-0 0.024v-0.001z"></path>
</symbol>
<symbol id="icon-select" viewBox="0 0 45 32">
<title>select</title>
<path d="M44.454 0.803c-0.496-0.496-1.18-0.802-1.936-0.802s-1.441 0.306-1.936 0.802l-24.58 24.583-11.322-11.322c-0.496-0.496-1.18-0.802-1.936-0.802-1.512 0-2.738 1.226-2.738 2.738 0 0.756 0.306 1.441 0.802 1.936v0l13.245 13.26c0.496 0.496 1.18 0.802 1.936 0.802s1.441-0.306 1.936-0.802l26.517-26.52c0.499-0.496 0.808-1.183 0.808-1.942 0-0.753-0.304-1.435-0.796-1.931l0 0z"></path>
</symbol>
</defs>
</svg>
